…
### How do we make bar charts?

For our examples we will use the same data from the [Australian Environmental-Economic Accounts (2016)](https://www.abs.gov.au/AUSSTATS/abs@.nsf/Lookup/4655.0Explanatory%20Notes12016?OpenDocument), now including data from 2008-2014. The data relates to water consumption by state.

``` r
load(file = "tidy_EnvAcc_data/consumption.rdata")
consumption
```

    ## # A tibble: 48 x 3
    ##    State year    water_consumption
    ##    <chr> <chr>               <dbl>
    ##  1 NSW   2008–09              4555
    ##  2 VIC   2008–09              2951
    ##  3 QLD   2008–09              3341
    ##  4 SA    2008–09              1179
    ##  5 WA    2008–09              1361
    ##  6 TAS   2008–09               466
    ##  7 NT    2008–09               160
    ##  8 ACT   2008–09                48
    ##  9 NSW   2009–10              4323
    ## 10 VIC   2009–10              2904
    ## # … with 38 more rows
…
