…
Now we add edges to it. We add an edge `i, j` (using `rbind()`) if species `i` is eaten by species `j`, ie if the entry in our table `[i, j+1]` is 1. (**Note**: we use `j+1` because the first column is the type name column.)

``` r
for (i in 1:nrow(chain_data)) {
  for (j in 1:nrow(chain_data)) {
    if(chain_data[i,j+1] == "1") {
      chain_edges = rbind(chain_edges, c(i,j))
    }
  }
}
chain_edges
```

    ## # A tibble: 127 x 2
    ##     from    to
    ##    <int> <int>
    ##  1    NA    NA
    ##  2     1    29
    ##  3     1    30
    ##  4     1    31
    ##  5     1    34
    ##  6     1    35
    ##  7     1    36
    ##  8     1    37
    ##  9     1    38
    ## 10     1    39
    ## # … with 117 more rows
…
Now we add edges to it. We add an edge `i, j` (using `rbind()`) if type `i` is super-effective on type `j`, ie if the entry in our table `[i, j+1]` is 2. (**Note**: we use `j+1` because the first column is the type name column.)

``` r
for (i in 1:18) {
  for (j in 1:18) {
    if(types[i,j+1] == 2) {
      type_edges = rbind(type_edges, c(i,j))
    }
  }
}
type_edges
```

    ## # A tibble: 52 x 2
    ##     from    to
    ##    <int> <int>
    ##  1    NA    NA
    ##  2     2     5
    ##  3     2     6
    ##  4     2    12
    ##  5     2    17
    ##  6     3     2
    ##  7     3     9
    ##  8     3    13
    ##  9     4     3
    ## 10     4    10
    ## # … with 42 more rows
…
