The Tidyverse | A First Course in R
…
head(music_data, 5)

## # A tibble: 5 x 5
##   date      begin  end    hours description
##   <chr>     <time> <time> <dbl> <chr>      
## 1 1/06/2019 21:30  22:30    1   Mozart     
## 2 2/06/2019 10:00  11:00    1   Chopin     
## 3 2/06/2019 16:00  17:30    1.5 Mozart     
## 4 3/06/2019 10:00  11:00    1   Chopin     
## 5 4/06/2019 10:00  11:30    1.5 Beethoven

music_data %>%
  mutate(running_total = cumsum(hours))

## # A tibble: 24 x 6
##    date      begin  end    hours description running_total
##    <chr>     <time> <time> <dbl> <chr>               <dbl>
##  1 1/06/2019 21:30  22:30    1   Mozart                1  
##  2 2/06/2019 10:00  11:00    1   Chopin                2  
##  3 2/06/2019 16:00  17:30    1.5 Mozart                3.5
##  4 3/06/2019 10:00  11:00    1   Chopin                4.5
##  5 4/06/2019 10:00  11:30    1.5 Beethoven             6  
##  6 4/06/2019 12:00  13:30    1.5 Mozart                7.5
##  7 4/06/2019 15:30  16:30    1   Chopin                8.5
##  8 5/06/2019 12:30  13:30    1   Chopin                9.5
##  9 5/06/2019 14:30  16:30    2   Chopin               11.5
## 10 5/06/2019 17:00  17:30    0.5 Mozart               12  
## # … with 14 more rows
…
We have asked the location_name variable to store the concatenation of all the column names of our data after the 6th column

We have gone the extra mile to make this work for station names that are more or less than three words long - this is good coding practice!

as.character() and substring() are used to tweak the name to remove the file’s unsightly formating

Now we mutate() our location column and year column.

station1 <- station1 %>%
  mutate(location = (location_name)) %>%
  mutate(year = substr(MEAN, start = 1, stop = 4))
  # Our year is just the first four characters in our misnamed start date column
station1

## # A tibble: 103 x 11
##      MEAN   TEMP X.002012 X19100101 X20121231 missing_value.9… X...HALLS CREEK
##     <dbl>  <dbl> <chr>    <chr>     <chr>     <chr>            <chr>     <chr>
##  1 1.91e7 1.91e7 "   26.… <NA>      <NA>      <NA>             <NA>      <NA> 
##  2 1.91e7 1.91e7 "   26.… <NA>      <NA>      <NA>             <NA>      <NA> 
##  3 1.91e7 1.91e7 "   26.… <NA>      <NA>      <NA>             <NA>      <NA> 
##  4 1.91e7 1.91e7 "   25.… <NA>      <NA>      <NA>             <NA>      <NA> 
##  5 1.91e7 1.91e7 "   25.… <NA>      <NA>      <NA>             <NA>      <NA> 
##  6 1.92e7 1.92e7 "   26.… <NA>      <NA>      <NA>             <NA>      <NA> 
##  7 1.92e7 1.92e7 "   26.… <NA>      <NA>      <NA>             <NA>      <NA> 
##  8 1.92e7 1.92e7 "   25.… <NA>      <NA>      <NA>             <NA>      <NA> 
##  9 1.92e7 1.92e7 "   25.… <NA>      <NA>      <NA>             <NA>      <NA> 
## 10 1.92e7 1.92e7 "   26.… <NA>      <NA>      <NA>             <NA>      <NA> 
## # … with 93 more rows, and 3 more variables: AIRPORT <chr>, location <chr>,
## #   year <chr>

Let’s also rename our temperature column from the string of numbers it currently is, and convert the data to numbers (not characters)

colnames(station1)[3] <- "average.temp"
station1$average.temp <- as.numeric(station1$average.temp)

Finally we select() to get only the data we want

station1 <- station1 %>%
  select(year,
         average.temp,
         location)
station1

## # A tibble: 103 x 3
##    year  average.temp location           
##    <chr>        <dbl> <chr>              
##  1 1910          26.4 HALLS CREEK AIRPORT
##  2 1911          26.3 HALLS CREEK AIRPORT
##  3 1912          26   HALLS CREEK AIRPORT
##  4 1913          25.2 HALLS CREEK AIRPORT
##  5 1914          25.8 HALLS CREEK AIRPORT
##  6 1915          26.4 HALLS CREEK AIRPORT
##  7 1916          26.2 HALLS CREEK AIRPORT
##  8 1917          25.5 HALLS CREEK AIRPORT
##  9 1918          25.4 HALLS CREEK AIRPORT
## 10 1919          26   HALLS CREEK AIRPORT
## # … with 93 more rows
…
